ispLEVER 6.1.01.54.51.06.SP2006.01 Lattice Semiconductor Corp.
JEDEC file for: P22V10G V9.0
Created on: Sun Mar 04 15:33:56 2007

TURBO 15.3
*
QP24* QF5892* QV0* F0*
 X0*
NOTE DEVICE NAME: GAL22V10D-10LP*
NOTE Table of pin names and numbers*
NOTE PINS CLK_7MHZ:1 IORQ_:4 WR_EN:5 RAM_:6 INT:7 TRB_IN:8 BORDER_:9*
NOTE PINS M1_:10 H0:11 H1:13 H1M:14 WR_BUFF:16 RAS_:17 WE:19 CLK_CPU:20 WAIT_:21*
NOTE PINS VCC:22*
NOTE Table of node names and numbers*
NOTE NODES Pin13:15 TRB:18*
L0924 11111111111111111111111111111111111111111111*
L0968 11111111111111111111110111111111111111111111*
L1012 11111111111111111111111111011111111011111110*
L1056 11111111111111111111111111011111101011111111*
L1100 11111111111111111011011111111111111011111111*
L1496 11111111111111111111111111111111111111111111*
L1540 01111111111111111111111011111111111111111111*
L1584 11111111111111111111110111101111111111111111*
L2156 11111111111111111111111111111111111111111111*
L2200 11111111111111111111110111111111111111111101*
L2244 11111111111111111111111111111111011111111101*
L2288 11111111111111111111111111011111111111111111*
L2332 11111111111111111011111111111111111111111111*
L2948 11111111111111111111111011111111111111111101*
L2992 11111111111111111111111011101111111111111111*
L3036 11111111111111110111111011111111111111111111*
L3080 11111111111111111111101011111111111111111111*
L3124 11111111111111111011011101011011111111111110*
L3652 11111111111111111111111111111111111111111111*
L3696 11111111111111111111111111111111111111110111*
L4312 11111111111111111111111111111111111111111111*
L4356 11111111111111111111111111111111111111110110*
L4400 11111111111111111111111011111111101111110111*
L4928 11111111111111111111111111111111110111111111*
L4972 11111111111101111111111111111111111111111111*
L5368 11111111111111111111111111111111111111111111*
L5412 11111111111111111111110111111111111111111101*
L5456 11111111111111111111111111111111011111111101*
L5808 00001111101010110011*
C9413*
9BB9
