TITLE           TURBO PLATA VER2.0
PATTERN         PDS
REVISION        1
AUTHOR          ZS
COMPANY         SCORPION
DATE            01.01.96

OPTIONS: TURBO = ON
SECURITY = OFF
LOC Release [ 3.1 ] SID [ 2.364 ]
*
N PART: 85C220 *
N@ Vcc @20 *
N@ GND @10 *
N@ IORQ_ @2 *
N@ WR_EN @3 *
N@ RAM_ @4 *
N@ INT @5 *
N@ I9 @6 *
N@ BORDER_ @7 *
N@ M1_ @8 *
N@ H0 @9 *
N@ H1 @11 *
N@ I1 @1 *
N@ WR_BUFF @14 *
N@ CLK_CPU @18 *
N@ H1M @12 *
N@ H1M.FB @MC8 *
N@ WE @17 *
N@ RAS_ @15 *
N@ RAS_.FB @MC5 *
N@ TRB @16 *
N@ TRB.FB @MC4 *
N@ Q1 @19 *
N@ Q1.FB @MC1 *
N@ Q7 @MC7 *
QP20* QF2916*
F0*
G0*
L0
111011111111111001110111111111111111
111001101111111111111111111111111111
111111111111111110110111111101111111
111111111111111011111111111101111111
111011111111110110110111111111111101
111111111111111101111011111101111111
111111101111111111111111111101111111
111111111111111111111110111111111111
111111111111111111111111111111111111
101111111111111111111111111110111111
000000000000000000000000000000000000
000000000000000000000000000000000000
000000000000000000000000000000000000
111111111111111111111111111001111111
000000000000000000000000000000000000
000000000000000000000000000000000000
000000000000000000000000000000000000
111111111111111111111111111111111111
111110111111111111110111111011111111
000000000000000000000000000000000000
000000000000000000000000000000000000
000000000000000000000000000000000000
000000000000000000000000000000000000
000000000000000000000000000000000000
000000000000000000000000000000000000
000000000000000000000000000000000000
111111111111111111110111111111111111
111101101001111111011111110111111111
111110111111111111111111111110111111
111111111111111111101111111110111111
000000000000000000000000000000000000
111111111111111111111111111010111111
111111011111111111111111111110111111
000000000000000000000000000000000000
000000000000000000000000000000000000
111111111111111111111111111111111111
111111111111111110111111111111111111
000000000000000000000000000000000000
000000000000000000000000000000000000
000000000000000000000000000000000000
000000000000000000000000000000000000
000000000000000000000000000000000000
000000000000000000000000000000000000
000000000000000000000000000000000000
111111111111111111111111111111111111
111111111111111110110111111111111111
000000000000000000000000000000000000
000000000000000000000000000000000000
000000000000000000000000000000000000
000000000000000000000000000000000000
000000000000000000000000000000000000
000000000000000000000000000000000000
000000000000000000000000000000000000
111111111111111111111111111111111111
110111111111111111111111111110111101
000000000000000000000000000000000000
000000000000000000000000000000000000
000000000000000000000000000000000000
000000000000000000000000000000000000
000000000000000000000000000000000000
000000000000000000000000000000000000
000000000000000000000000000000000000
000000000000000000000000000000000000
111111111111111111101111111101111111
000000000000000000000000000000000000
000000000000000000000000000000000000
000000000000000000000000000000000000
111111111111101111101111111110111111
000000000000000000000000000000000000
000000000000000000000000000000000000
000000000000000000000000000000000000
111111111111111111111111111111111111
111111111111111111111111111111111111
111111111111111111111111111111111111
111111111111111111111111111111111111
111111111111111111111111111111111111
111111111111111111111111111111111111
111111111111111111111111111111111111
111111111111111111111111111111111111
111111111111111111111111111111111111
111111000011111111111100111111001111*
N Fuse Checksum is:* C9DCA*
B732