::::::::::::::::::::::::::::::::::::::::::::::::::::::::::::::::
::::::::::::::::::::::::::::::::::::::::::::::::::::::::::::::::
:::Saransk:computer:newspaper:::::::::::::::::::::::::::::::::::
::::::::::::::::::::::::::::::::::::::::::::::::::::::::::::::::
::::::::::::::::::::::::::::::::::::::::::::::::::::::::::::::::
::::::::::::::::::::::::::::::::::::::::::::::::::::::::::::::::
::::::::#####:::::::#####:::::###########::::#####:::::#####::::
::::::###   ###::::::###  :::#    ###    # ::::### ::::###   :::
:::::###  :::###:::::### ::::: :::### :::: :::::### ::### ::::::
:::::### :::::   ::::### :::::::::### :::::::::::### ### :::::::
:::::### ::::::::::::### :::::::::### ::::::::::::##### ::::::::
:::::### ::::::::::::### :::::::::### :::::::::::::### :::::::::
:::::### ::::###:::::### :::::::::### :::::::::::::### :::::::::
::::::###...### :::::### :::::::::### :::::::::::::### :::::::::
::::::::##### ::::::##### :::::::##### :::::::::::##### ::::::::
:::::::::     :::::::     ::::::::     ::::::::::::     ::::::::
::::::::::::::::::::::::::::::::::::::::::::::::::::::::::::::::
::::::::::::::::::::::::::::::::::::::::::::::::::::::::::::::::
::::::::::::::::::::::::::::::::::::::::::::::::::::::::::::::::
::::::::::::::::::::::::::::::::::::::::N:40:от:17.02.2000:г::::
::::::::::::::::::::::::::::::::::::::::::::::::::::::::::::::::
::::::::::::::::::::::::::::::::::::::::::::::::::::::::::::::::


┌──────────────────────────────────────────────────────────────┐
│             **      ПЛАНЕТА ШЕЛЕЗЯКА      **                 │
└──────────────────────────────────────────────────────────────┘

        ПОДКЛЮЧЕНИЕ 1M_SIMM-МОДУЛЯ К "ЖЕЛТОМУ" СКОРПИОНУ
        ~~~~~~~~~~~~~~~~~~~~~~~~~~~~~~~~~~~~~~~~~~~~~~~~
Схему "рисовал" - Vlad Zinuk (500:812/9.1)
Первая редакция - Kirill Frolov (500:812/9.8)
Последняя редакция - Felix Knajzev (500:812/9.9)
                                               ┌─────────>k3hD3
                                               │  ┌──┐
                                        ИР22   └──┤ 1o─┐    SIMM
                                       ┌──┬──┐    │  │ │  30 pin
                                   ╔─13┤D0│Q0├12╗ └──┘ │     1Mb
                                   ║─17┤D1│Q1├16║      │    ╔══╗
                                   ║─18┤D2│Q2├19║      │+5В ║ 1║
                      D0..D7 с D60 ║──7┤D3│Q3├6─║      └────║ 2║
                        ═══════════╣──3┤D4│Q4├2─╠═══╦───────║ 3║
                                   ║─14┤D5│Q5├15║   ║ PY7:7 ║ 4║
                                   ║──4┤D6│Q6├5─║   ║ PY7:6 ║ 5║
                      ЛИ1          ╚──8┤D7│Q7├9─╝   ╠───────║ 6║
                     ┌──┐              ├──┤  │      ║ PY7:5 ║ 7║
               A14<─1┤ &│              │  │  │      ║ PY7:9 ║ 8║
               A15<─2┤  ├3┐     +SBo─11┤C │  ├1──┐  ║ общий ║ 9║
              ┌──┬──┐└──┘ │ha6hD16<┐   └──┴──┘   │  ╠───────║10║
    +5В<─o───4┤/S│  │   ┌─┘        │       КП12  │  ║ PY7:10║11║
 k9hD52<─┼o──3┤ C│  │   │   ┌──┐   │    ┌──┬──┐  │  ║ PY7:11║12║
     D6<─┼┼──2┤ D│ Q├5──┼──4┤ &├6──┘┌─1SoSB│  │  │  ╠───────║13║
        ┌┼┼──1┤ R│  │   o──5┤  │    │   ├──┤  │  │  ║ PY7:12║14║
        │││   ├──┼──┤   │   └──┘    │ 10┤B0│  │  │  ║ PY7:13║15║
        │└┼─10┤/S│  │   │   ┌──┐    │ 11┤B1│  │  │  ╠───────║16║
        │ └─11┤ C│ Q├9──┼──9┤ &│8┐  │ 12┤B2│YB│  │  ║ PY7:1 ║17║
 D7<────┼───12┤ D│  │   └─10┤  │ │  │ 13┤B3│  │ ┌┼──────────║18║
        o───13┤ R│  │       └──┘ │  │   ├──┼──┤ ││  ║ничего ║19║
        │     ├──┤  │        A9<─┼──┼──6┤A0│  │ ││  ╠───────║20║
        │ TM2 │  │  │    k7hD19<─┼──┼──5┤A1│  │ │o──╫───────║21║
        │     └──┴──┘            └──┼──4┤A2│  │ ││  ╠───────║23║
        └──────────────┐            o──3┤A3│  │ ││  ║ничего ║24║
                 ЛИ1   │            o──1oSA│YA├7┘│  ╠───────║25║
                ┌──┐   │           ─┴─  ├──┤  │  │  ║ничего ║26║
k26hZ80  <────12┤ &├11─┘  k14hD52<────14┤S0│  │  │  ║ PY7:4 ║27║
            ┌─13┤  │      k 2hD52<─────2┤S1│  │  │  ║ничего ║28║
      S1    │   └──┘                    └──┴──┘  │  ║ничего ║29║
       /    │ ┌───┐                              │  ║ +5B   ║30║
   ┌──┘│└───o─┤1k ├───o+5В                       │  ║       ╚══╝
   │          └───┘                     k8hD9<───┘  ║
  ─┴─                                               ║
  S1 - вырубает верхнию память                      ╙──>
       Pentagon-512k.            Сигналы SIMM D0-D7     k н D38
                                             3              17
                                             6               4
                                            10              18
                                            13               3
                                            16               8
                                            20              13
                                            23               7
                                            25              14

 1. 7hD19 отрезать от 13hD18, последнюю пустить на землю.
 2. 8hD13 отрезать, дорожку от нее к рушкам посадить на +5В.
 3. 6hD16 отрезается от A9.
 4. Сигнал H0 (3hD3) инвертировать и использовать в качестве CAS
    для SIMM.
